Final Project Proposal
…
# Calculate the percentages including 'Push'
cover_percentages <- combined_df |>
  group_by(Team, Role) |>
  summarise(Covered = sum(Cover == 'Covered') / n() * 100,
            Failed = sum(Cover == 'Failed') / n() * 100,
            Push = sum(Cover == 'Push') / n() * 100) |>
  ungroup()

`summarise()` has grouped output by 'Team'. You can override using the
`.groups` argument.

cover_percentages

# A tibble: 64 × 5
   Team              Role     Covered Failed  Push
   <chr>             <chr>      <dbl>  <dbl> <dbl>
 1 Arizona Cardinals Favorite    44.5   53.1  2.34
 2 Arizona Cardinals Underdog    50.6   47.3  2.11
 3 Atlanta Falcons   Favorite    46.1   52.9  1.05
 4 Atlanta Falcons   Underdog    49.4   49.4  1.12
 5 Baltimore Ravens  Favorite    48.5   49.4  2.11
 6 Baltimore Ravens  Underdog    52.8   43.0  4.23
 7 Buffalo Bills     Favorite    52.6   45.0  2.34
 8 Buffalo Bills     Underdog    47.9   47.4  4.64
 9 Carolina Panthers Favorite    45.0   51.5  3.55
10 Carolina Panthers Underdog    52.2   45.3  2.49
# ℹ 54 more rows
…
